{
  "relayName": "Alle i Tale Stafetten",
  "categoryName": "Organisatorisk tilknytning",
  "nodes": [{
    "id": 2540,
    "name": "Forsknings- og/eller uddannelsesinstitution",
    "value": 40
  },
    {
      "id": 2541,
      "name": "Ikke angivet",
      "value": 22
    },
    {
      "id": 2542,
      "name": "Imellem og på tværs",
      "value": 17
    },
    {
      "id": 2543,
      "name": "Kommuner",
      "value": 57
    },
    {
      "id": 2544,
      "name": "Medlems- og interesseorganisationer",
      "value": 28
    },
    {
      "id": 2545,
      "name": "Politiske partier og udvalg",
      "value": 5
    },
    {
      "id": 2546,
      "name": "Regioner",
      "value": 5
    },
    {
      "id": 2547,
      "name": "SMV og selvstændige",
      "value": 166
    },
    {
      "id": 2548,
      "name": "Stat og styrelser",
      "value": 9
    },
    {
      "id": 2549,
      "name": "Store private virksomheder",
      "value": 43
    }
  ],
  "edges": [{
    "source": 2540,
    "target": 2540,
    "value": 2
  },
    {
      "source": 2540,
      "target": 2541,
      "value": 1
    },
    {
      "source": 2540,
      "target": 2543,
      "value": 2
    },
    {
      "source": 2540,
      "target": 2544,
      "value": 1
    },
    {
      "source": 2540,
      "target": 2545,
      "value": 2
    },
    {
      "source": 2540,
      "target": 2546,
      "value": 2
    },
    {
      "source": 2540,
      "target": 2547,
      "value": 13
    },
    {
      "source": 2540,
      "target": 2549,
      "value": 1
    },
    {
      "source": 2541,
      "target": 2540,
      "value": 3
    },
    {
      "source": 2541,
      "target": 2541,
      "value": 2
    },
    {
      "source": 2541,
      "target": 2543,
      "value": 2
    },
    {
      "source": 2541,
      "target": 2544,
      "value": 2
    },
    {
      "source": 2541,
      "target": 2545,
      "value": 1
    },
    {
      "source": 2541,
      "target": 2547,
      "value": 3
    },
    {
      "source": 2541,
      "target": 2549,
      "value": 1
    },
    {
      "source": 2542,
      "target": 2540,
      "value": 2
    },
    {
      "source": 2542,
      "target": 2541,
      "value": 1
    },
    {
      "source": 2542,
      "target": 2543,
      "value": 1
    },
    {
      "source": 2542,
      "target": 2547,
      "value": 5
    },
    {
      "source": 2542,
      "target": 2549,
      "value": 2
    },
    {
      "source": 2543,
      "target": 2540,
      "value": 5
    },
    {
      "source": 2543,
      "target": 2541,
      "value": 1
    },
    {
      "source": 2543,
      "target": 2542,
      "value": 1
    },
    {
      "source": 2543,
      "target": 2543,
      "value": 5
    },
    {
      "source": 2543,
      "target": 2544,
      "value": 1
    },
    {
      "source": 2543,
      "target": 2546,
      "value": 1
    },
    {
      "source": 2543,
      "target": 2547,
      "value": 16
    },
    {
      "source": 2543,
      "target": 2549,
      "value": 2
    },
    {
      "source": 2544,
      "target": 2540,
      "value": 2
    },
    {
      "source": 2544,
      "target": 2541,
      "value": 1
    },
    {
      "source": 2544,
      "target": 2542,
      "value": 1
    },
    {
      "source": 2544,
      "target": 2543,
      "value": 3
    },
    {
      "source": 2544,
      "target": 2544,
      "value": 2
    },
    {
      "source": 2544,
      "target": 2545,
      "value": 1
    },
    {
      "source": 2544,
      "target": 2547,
      "value": 6
    },
    {
      "source": 2544,
      "target": 2548,
      "value": 2
    },
    {
      "source": 2544,
      "target": 2549,
      "value": 1
    },
    {
      "source": 2546,
      "target": 2541,
      "value": 1
    },
    {
      "source": 2546,
      "target": 2543,
      "value": 1
    },
    {
      "source": 2546,
      "target": 2546,
      "value": 1
    },
    {
      "source": 2546,
      "target": 2547,
      "value": 1
    },
    {
      "source": 2547,
      "target": 2540,
      "value": 8
    },
    {
      "source": 2547,
      "target": 2541,
      "value": 5
    },
    {
      "source": 2547,
      "target": 2542,
      "value": 4
    },
    {
      "source": 2547,
      "target": 2543,
      "value": 17
    },
    {
      "source": 2547,
      "target": 2544,
      "value": 8
    },
    {
      "source": 2547,
      "target": 2545,
      "value": 2
    },
    {
      "source": 2547,
      "target": 2546,
      "value": 1
    },
    {
      "source": 2547,
      "target": 2547,
      "value": 48
    },
    {
      "source": 2547,
      "target": 2548,
      "value": 4
    },
    {
      "source": 2547,
      "target": 2549,
      "value": 9
    },
    {
      "source": 2548,
      "target": 2542,
      "value": 1
    },
    {
      "source": 2548,
      "target": 2543,
      "value": 1
    },
    {
      "source": 2548,
      "target": 2547,
      "value": 2
    },
    {
      "source": 2549,
      "target": 2540,
      "value": 1
    },
    {
      "source": 2549,
      "target": 2541,
      "value": 1
    },
    {
      "source": 2549,
      "target": 2542,
      "value": 1
    },
    {
      "source": 2549,
      "target": 2543,
      "value": 1
    },
    {
      "source": 2549,
      "target": 2544,
      "value": 2
    },
    {
      "source": 2549,
      "target": 2545,
      "value": 1
    },
    {
      "source": 2549,
      "target": 2547,
      "value": 12
    },
    {
      "source": 2549,
      "target": 2548,
      "value": 1
    }
  ]
}