{
  "relayName": "ATP",
  "categoryName": "Funktion",
  "nodes": [
    {
      "id": 975,
      "name": "Udvikling/specialist",
      "value": 19
    },
    {
      "id": 976,
      "name": "Kunderådgiver",
      "value": 20
    },
    {
      "id": 977,
      "name": "Leder",
      "value": 41
    }
  ],
  "edges": [
    {
      "source": 975,
      "target": 975,
      "value": 3
    },
    {
      "source": 975,
      "target": 976,
      "value": 5
    },
    {
      "source": 975,
      "target": 977,
      "value": 10
    },
    {
      "source": 976,
      "target": 975,
      "value": 3
    },
    {
      "source": 976,
      "target": 976,
      "value": 8
    },
    {
      "source": 976,
      "target": 977,
      "value": 8
    },
    {
      "source": 977,
      "target": 975,
      "value": 7
    },
    {
      "source": 977,
      "target": 976,
      "value": 4
    },
    {
      "source": 977,
      "target": 977,
      "value": 19
    }
  ]
}