{
  "groupingId": "7c38ff1c-38c1-11e8-a9f4-2bf581cde595",
  "nodes": [{
    "id": "2169bfcd-3dff-40db-bd81-abd5a8d460f8",
    "name": "R&D",
    "value": "1"
  }, {
    "id": "2cd45c7e-1301-4f89-8b61-53b6ee537c19",
    "name": "Marketing",
    "value": "0"
  }, {
    "id": "ad1e321d-bca5-4bcf-858e-54f541559eb9",
    "name": "Title 3",
    "value": "0"
  }, {
    "id": "d49972e5-def3-44c4-8117-3cfabc7c5035",
    "name": "Title 4",
    "value": "2"
  }],
  "edges": [{
    "source": "2169bfcd-3dff-40db-bd81-abd5a8d460f8",
    "target": "d49972e5-def3-44c4-8117-3cfabc7c5035",
    "value": 1
  }, {
    "source": "d49972e5-def3-44c4-8117-3cfabc7c5035",
    "target": "2169bfcd-3dff-40db-bd81-abd5a8d460f8",
    "value": 1
  }, {
    "source": "d49972e5-def3-44c4-8117-3cfabc7c5035",
    "target": "2cd45c7e-1301-4f89-8b61-53b6ee537c19",
    "value": 1
  }]
}
