{
  "relayName": "Københavns Kommune",
  "categoryName": "Arbejdsområde",
  "nodes": [
    {
      "id": 1693,
      "name": "Arbejder ikke i Sundby",
      "value": 113
    },
    {
      "id": 1694,
      "name": "Erhverv",
      "value": 22
    },
    {
      "id": 1695,
      "name": "Børn og unge",
      "value": 16
    },
    {
      "id": 1696,
      "name": "Kulturinstitutioner",
      "value": 18
    },
    {
      "id": 1697,
      "name": "Partnerskab",
      "value": 6
    },
    {
      "id": 1698,
      "name": "Boligforening",
      "value": 8
    },
    {
      "id": 1699,
      "name": "Lokaludvalg",
      "value": 7
    },
    {
      "id": 1700,
      "name": "Øvrige",
      "value": 14
    }
  ],
  "edges": [
    {
      "source": 1693,
      "target": 1693,
      "value": 32
    },
    {
      "source": 1693,
      "target": 1694,
      "value": 5
    },
    {
      "source": 1693,
      "target": 1695,
      "value": 1
    },
    {
      "source": 1693,
      "target": 1696,
      "value": 6
    },
    {
      "source": 1693,
      "target": 1697,
      "value": 8
    },
    {
      "source": 1693,
      "target": 1698,
      "value": 2
    },
    {
      "source": 1693,
      "target": 1700,
      "value": 5
    },
    {
      "source": 1694,
      "target": 1693,
      "value": 7
    },
    {
      "source": 1694,
      "target": 1694,
      "value": 1
    },
    {
      "source": 1694,
      "target": 1700,
      "value": 1
    },
    {
      "source": 1695,
      "target": 1693,
      "value": 2
    },
    {
      "source": 1695,
      "target": 1694,
      "value": 3
    },
    {
      "source": 1695,
      "target": 1696,
      "value": 1
    },
    {
      "source": 1695,
      "target": 1697,
      "value": 1
    },
    {
      "source": 1696,
      "target": 1693,
      "value": 1
    },
    {
      "source": 1696,
      "target": 1694,
      "value": 2
    },
    {
      "source": 1696,
      "target": 1696,
      "value": 1
    },
    {
      "source": 1696,
      "target": 1698,
      "value": 2
    },
    {
      "source": 1696,
      "target": 1700,
      "value": 1
    },
    {
      "source": 1697,
      "target": 1693,
      "value": 2
    },
    {
      "source": 1697,
      "target": 1695,
      "value": 1
    },
    {
      "source": 1698,
      "target": 1693,
      "value": 2
    },
    {
      "source": 1698,
      "target": 1695,
      "value": 1
    },
    {
      "source": 1699,
      "target": 1693,
      "value": 4
    },
    {
      "source": 1699,
      "target": 1695,
      "value": 1
    },
    {
      "source": 1700,
      "target": 1693,
      "value": 3
    },
    {
      "source": 1700,
      "target": 1694,
      "value": 1
    },
    {
      "source": 1700,
      "target": 1697,
      "value": 1
    },
    {
      "source": 1700,
      "target": 1698,
      "value": 1
    }
  ]
}