{
  "relayName": "Institutionsledere",
  "categoryName": "Landsdel",
  "nodes": [
    {
      "id": 4311,
      "name": "Nordjylland",
      "value": 6
    },
    {
      "id": 4312,
      "name": "Midtjylland",
      "value": 11
    },
    {
      "id": 4313,
      "name": "Syddanmark",
      "value": 22
    },
    {
      "id": 4314,
      "name": "Sjælland ",
      "value": 12
    },
    {
      "id": 4315,
      "name": "Hovedstaden ",
      "value": 73
    }
  ],
  "edges": [
    {
      "source": 4311,
      "target": 4312,
      "value": 1
    },
    {
      "source": 4311,
      "target": 4313,
      "value": 2
    },
    {
      "source": 4311,
      "target": 4315,
      "value": 3
    },
    {
      "source": 4312,
      "target": 4311,
      "value": 1
    },
    {
      "source": 4312,
      "target": 4312,
      "value": 2
    },
    {
      "source": 4312,
      "target": 4313,
      "value": 3
    },
    {
      "source": 4312,
      "target": 4314,
      "value": 1
    },
    {
      "source": 4312,
      "target": 4315,
      "value": 2
    },
    {
      "source": 4313,
      "target": 4311,
      "value": 1
    },
    {
      "source": 4313,
      "target": 4312,
      "value": 1
    },
    {
      "source": 4313,
      "target": 4313,
      "value": 1
    },
    {
      "source": 4313,
      "target": 4314,
      "value": 2
    },
    {
      "source": 4313,
      "target": 4315,
      "value": 4
    },
    {
      "source": 4314,
      "target": 4313,
      "value": 1
    },
    {
      "source": 4314,
      "target": 4314,
      "value": 1
    },
    {
      "source": 4314,
      "target": 4315,
      "value": 8
    },
    {
      "source": 4315,
      "target": 4311,
      "value": 1
    },
    {
      "source": 4315,
      "target": 4312,
      "value": 1
    },
    {
      "source": 4315,
      "target": 4313,
      "value": 5
    },
    {
      "source": 4315,
      "target": 4314,
      "value": 2
    },
    {
      "source": 4315,
      "target": 4315,
      "value": 32
    }
  ]
}