{
  "relayName": "Institutionsledere",
  "categoryName": "Stat, Region eller Kommune",
  "nodes": [
    {
      "id": 4308,
      "name": "Stat",
      "value": 46
    },
    {
      "id": 4309,
      "name": "Region",
      "value": 21
    },
    {
      "id": 4310,
      "name": "Kommune",
      "value": 57
    }
  ],
  "edges": [
    {
      "source": 4308,
      "target": 4308,
      "value": 17
    },
    {
      "source": 4308,
      "target": 4309,
      "value": 1
    },
    {
      "source": 4308,
      "target": 4310,
      "value": 13
    },
    {
      "source": 4309,
      "target": 4308,
      "value": 2
    },
    {
      "source": 4309,
      "target": 4309,
      "value": 3
    },
    {
      "source": 4309,
      "target": 4310,
      "value": 5
    },
    {
      "source": 4310,
      "target": 4308,
      "value": 12
    },
    {
      "source": 4310,
      "target": 4309,
      "value": 5
    },
    {
      "source": 4310,
      "target": 4310,
      "value": 17
    }
  ]
}