{
  "relayName": "Mariehjemmene",
  "categoryName": "Ansvarsområde",
  "nodes": [
    {
      "id": 4007,
      "name": "Økonomi",
      "value": 20
    },
    {
      "id": 4008,
      "name": "Løn og ejendom",
      "value": 14
    },
    {
      "id": 4009,
      "name": "Udvikling",
      "value": 15
    }
  ],
  "edges": [
    {
      "source": 4007,
      "target": 4007,
      "value": 5
    },
    {
      "source": 4007,
      "target": 4008,
      "value": 2
    },
    {
      "source": 4007,
      "target": 4009,
      "value": 3
    },
    {
      "source": 4008,
      "target": 4007,
      "value": 4
    },
    {
      "source": 4008,
      "target": 4008,
      "value": 4
    },
    {
      "source": 4008,
      "target": 4009,
      "value": 5
    },
    {
      "source": 4009,
      "target": 4007,
      "value": 7
    },
    {
      "source": 4009,
      "target": 4008,
      "value": 4
    },
    {
      "source": 4009,
      "target": 4009,
      "value": 3
    }
  ]
}